{
    "antifeatures": {
        "Ads": "Custa aplicatzione cuntènnidi publitzidade",
        "DisabledAlgorithm": "Custa aplicatzione tenet una firma de seguresa dèbile",
        "KnownVuln": "Custa aplicatzione tenet una vulnerabilidade de seguresa connota",
        "NoSourceSince": "Su còdighe mitza no est prus disponìbile, no est possìbile fàghere agiornamentos.",
        "NonFreeAdd": "Custa aplicatzione promovet estensiones (add-ons) non lìberas",
        "NonFreeAssets": "Custa aplicatzione cuntennit cantos non lìberos",
        "NonFreeDep": "Custa aplicatzione dipendet dae àteros aplicos non lìberos",
        "NonFreeNet": "Custa aplicatzione promovet servìtzios de retza non lìberos",
        "Tracking": "Custa aplicatzione compidat e riferit a àteros de sas atividades tuas",
        "UpstreamNonFree": "Su còdighe mitza originale no est lìberu de su totu"
    },
    "app_categories": {
        "Connectivity": "Connetividade",
        "Development": "Isvilupu",
        "Games": "Giogos",
        "Graphics": "Gràfica",
        "Internet": "Ìnternet",
        "Money": "Dinare",
        "Multimedia": "Multimèdia",
        "Navigation": "Nàvigu",
        "Phone & SMS": "Telèfono & SMS",
        "Reading": "Letura",
        "Science & Education": "Iscièntzia e educatzione",
        "Security": "Seguràntzia",
        "Sports & Health": "Isport e Salude",
        "System": "Sistema",
        "Theming": "Temas",
        "Time": "Tempus",
        "Writing": "Iscritura",
        "show_all_packages": "Càstia totu %d"
    },
    "index": {
        "download_fdroid": "Iscàrriga F-Droid",
        "gpg_signature": "Firma PGP",
        "introduction": "F-Droid est unu catàlogu installàbile de aplicatziones a mitza lìbera (Open Source Software) pro sos sistemas operativos Android. S'aplicatzione permitit de esplorare, installare, e gestire sos agiornamentos pro su dispositivu bostru in manera fàtzile.",
        "screenshot": "Ischermadas de s'aplicatzione de F-Droid pro Android",
        "title": "Ite est F-Droid?"
    },
    "navigation": {
        "about": "A pitzu de",
        "contribute": "Agiuda",
        "documentation": "Documentos",
        "forum": "Forum",
        "issues": "Problemas",
        "news": "Noas"
    },
    "package": {
        "anti_features": "Anti-funtzionalidades",
        "anti_features_warning": "Custa aplicatzione tenet funtzionalidades chi ti diant pòdere non agradare.",
        "author": "Autore",
        "build_metadata": "Metadatos de costrutzione",
        "changelog": "Cronologia de sas modìficas",
        "donate": "Dona",
        "download": "Iscàrriga {{ file_extension }}",
        "flattr": "Flattr",
        "gpg_signature": "Firma PGP",
        "issue_tracker": "Sinnaladore de problemas",
        "liberapay": "Liberapay",
        "license": "Litzèntzia",
        "minimum_android_version": "Custa versione tenet bisòngiu de Android {{ android_version }} o prus nou.",
        "new_in_version": "Nou in sa versione {{ latest_version }}",
        "packages": "Pachetes",
        "permissions": "Permissos",
        "signed_by_developer": "Est compilada e firmada dae s'isvilupadore originale.",
        "signed_by_fdroid": "Est compilada e firmada dae F-Droid, garantende sa currispondèntzia a <a href=\"{{ source_code_url }}\">custa mitza tar</a>.",
        "source_code": "Còdighe mitza",
        "suggest_downloading_via_fdroid": "Fintzas si sos iscarrigamentos de APK sunt disponìbiles inoghe in giosso pro ti lassare n'issèbera, depes ischire chi installende·los in cussa manera no as a retzire notìficas pro sos agiornamentos disponìbiles e chi est una manera prus pagu segura de iscarrigare. Ti cunsigiamus de installare s'aplicatzione de F-Droid e de impreare cussa.",
        "technical_info": "Informatziones tècnicas",
        "translation": "Tradutzione",
        "version_info": "<b>Versione {{ package_version }}</b> ({{ package_version_code }})",
        "website": "Situ web"
    },
    "sidebars": {
        "donate": {
            "bank_transfer_name": "Nùmene",
            "bitcoin_alt": "Dona impreende Bitcoin",
            "flattr_alt": "Dona impreende Flattr",
            "heading": "Faghe una donatzione",
            "hellotux": "👕 Mallieddas 👕 dae",
            "hellotux_alt": "HELLOTUX",
            "hellotux_donation": "F-Droid at a retzire 3€ pro cada malliedda bèndida.",
            "liberapay_alt": "Dona impreende Liberapay",
            "litecoin_alt": "Dona impreende Litecoin",
            "paypal_alt": "Dona impreende Paypal",
            "powered_by_donations": "F-Droid est suportadu dae sas donatziones bostras!",
            "via_bank_transfer": "Bonìficu bancàriu"
        },
        "lang": {
            "change": "Càmbia"
        },
        "last_updated": {
            "heading": "Ùrtimu agiornamentu"
        },
        "latest_packages": {
            "heading": "Aplicatziones prus noas"
        },
        "news": {
            "heading": "Noas"
        },
        "search": {
            "heading": "Agata aplicatziones",
            "noscript": "Pro èssere abilitadu tenet bisòngiu de JavaScript",
            "search": "Chirca"
        }
    }
}
